<?xml version="1.0" encoding="UTF-8" standalone="no"?>
<!-- Created with Inkscape (http://www.inkscape.org/) -->

<svg
   xmlns:dc="http://purl.org/dc/elements/1.1/"
   xmlns:cc="http://creativecommons.org/ns#"
   xmlns:rdf="http://www.w3.org/1999/02/22-rdf-syntax-ns#"
   xmlns:svg="http://www.w3.org/2000/svg"
   xmlns="http://www.w3.org/2000/svg"
   xmlns:sodipodi="http://sodipodi.sourceforge.net/DTD/sodipodi-0.dtd"
   xmlns:inkscape="http://www.inkscape.org/namespaces/inkscape"
   width="767.97205mm"
   height="569.14557mm"
   viewBox="0 0 767.97204 569.14556"
   version="1.1"
   id="svg8"
   inkscape:version="0.92.4 (5da689c313, 2019-01-14)"
   sodipodi:docname="update.svg">
  <defs
     id="defs2" />
  <sodipodi:namedview
     id="base"
     pagecolor="#ffffff"
     bordercolor="#666666"
     borderopacity="1.0"
     inkscape:pageopacity="0.0"
     inkscape:pageshadow="2"
     inkscape:zoom="0.12374369"
     inkscape:cx="1618.5715"
     inkscape:cy="936.59143"
     inkscape:document-units="mm"
     inkscape:current-layer="layer1"
     showgrid="false"
     inkscape:window-width="1920"
     inkscape:window-height="1017"
     inkscape:window-x="1912"
     inkscape:window-y="-8"
     inkscape:window-maximized="1"
     fit-margin-top="0"
     fit-margin-left="0"
     fit-margin-right="0"
     fit-margin-bottom="0" />
  <metadata
     id="metadata5">
    <rdf:RDF>
      <cc:Work
         rdf:about="">
        <dc:format>image/svg+xml</dc:format>
        <dc:type
           rdf:resource="http://purl.org/dc/dcmitype/StillImage" />
        <dc:title></dc:title>
      </cc:Work>
    </rdf:RDF>
  </metadata>
  <g
     inkscape:label="Layer 1"
     inkscape:groupmode="layer"
     id="layer1"
     transform="translate(445.25596,-132.89379)">
    <g
       transform="matrix(1.953654,0,0,1.953654,424.62011,412.74741)"
       id="g834-8-1">
      <rect
         ry="9.004221"
         y="39.220238"
         x="-445.25595"
         height="108.85714"
         width="393.09521"
         id="rect815-3-3"
         style="fill:#333333;stroke:none;stroke-width:9.04874992;stroke-linecap:round;stroke-miterlimit:4;stroke-dasharray:none;stroke-opacity:1;paint-order:markers stroke fill" />
      <rect
         ry="2.7512894"
         y="56.607147"
         x="-109.73615"
         height="33.261902"
         width="38.67662"
         id="rect815-8-0-4"
         style="fill:#ffffff;stroke:none;stroke-width:1.56894982;stroke-linecap:round;stroke-miterlimit:4;stroke-dasharray:none;stroke-opacity:1;paint-order:markers stroke fill" />
    </g>
    <path
       style="fill:#00aa88;stroke:#ffffff;stroke-width:25;stroke-linecap:round;stroke-miterlimit:4;stroke-dasharray:none;stroke-opacity:1;paint-order:markers stroke fill"
       d="M -62.602413,150.39512 -272.06558,355.65805 h 128.21335 v 275.3707 c 0,4.98835 4.01577,9.00409 9.00409,9.00409 H 9.6433086 c 4.9883484,0 9.0041144,-4.01574 9.0041144,-9.00409 V 355.65805 H 146.86077 Z"
       id="rect898"
       inkscape:connector-curvature="0"
       sodipodi:nodetypes="cccssssccc" />
  </g>
</svg>
